<mxfile host="app.diagrams.net" modified="2023-05-31T13:57:55.212Z" agent="Mozilla/5.0 (Windows NT 10.0; Win64; x64) AppleWebKit/537.36 (KHTML, like Gecko) Chrome/113.0.0.0 Safari/537.36" etag="FuvI4pUUpvNCHpa-XOj5" version="21.3.6" type="gitlab">
  <diagram name="Page-1" id="s4RSBFtqe5UzabCWqAu7">
    <mxGraphModel dx="2071" dy="620" grid="1" gridSize="10" guides="1" tooltips="1" connect="1" arrows="1" fold="1" page="1" pageScale="1" pageWidth="850" pageHeight="1100" background="none" math="0" shadow="0">
      <root>
        <mxCell id="0" />
        <mxCell id="1" parent="0" />
        <mxCell id="ZKt9Rxk8hRKq1MYmmVNN-1" value="" style="rounded=0;whiteSpace=wrap;html=1;fillColor=none;" parent="1" vertex="1">
          <mxGeometry x="110" y="160" width="670" height="290" as="geometry" />
        </mxCell>
        <mxCell id="O49eScv-SLvOPECcGDNr-2" value="" style="rounded=0;whiteSpace=wrap;html=1;fillColor=#FFFFFF;strokeColor=#000000;strokeWidth=1;" parent="1" vertex="1">
          <mxGeometry x="-10" y="21" width="910" height="48" as="geometry" />
        </mxCell>
        <mxCell id="O49eScv-SLvOPECcGDNr-57" value="Channels" style="text;align=center;verticalAlign=middle;resizable=0;points=[];autosize=1;labelBackgroundColor=default;labelBorderColor=none;html=1;spacing=-1;fillColor=default;fontStyle=1" parent="1" vertex="1">
          <mxGeometry x="395" y="10" width="70" height="20" as="geometry" />
        </mxCell>
        <mxCell id="O49eScv-SLvOPECcGDNr-48" value="&lt;font style=&quot;font-size: 10px;&quot;&gt;Branch Banking&lt;/font&gt;" style="rounded=0;whiteSpace=wrap;html=1;fillColor=#CCFFFF;" parent="1" vertex="1">
          <mxGeometry x="210" y="30" width="90" height="30" as="geometry" />
        </mxCell>
        <mxCell id="O49eScv-SLvOPECcGDNr-50" value="&lt;font style=&quot;font-size: 10px;&quot;&gt;ATM POS&lt;/font&gt;" style="rounded=0;whiteSpace=wrap;html=1;fillColor=#CCFFFF;" parent="1" vertex="1">
          <mxGeometry x="570" y="30" width="90" height="30" as="geometry" />
        </mxCell>
        <mxCell id="O49eScv-SLvOPECcGDNr-52" value="&lt;font style=&quot;font-size: 10px;&quot;&gt;IVR&lt;/font&gt;" style="rounded=0;whiteSpace=wrap;html=1;strokeColor=#030200;fillColor=#CCFFFF;" parent="1" vertex="1">
          <mxGeometry x="760" y="30" width="90" height="30" as="geometry" />
        </mxCell>
        <mxCell id="O49eScv-SLvOPECcGDNr-61" value="&lt;font style=&quot;font-size: 10px;&quot;&gt;Online Banking&lt;/font&gt;" style="rounded=0;whiteSpace=wrap;html=1;fillColor=#CCFFFF;" parent="1" vertex="1">
          <mxGeometry x="30" y="30" width="90" height="30" as="geometry" />
        </mxCell>
        <mxCell id="O49eScv-SLvOPECcGDNr-66" value="&lt;font style=&quot;font-size: 10px;&quot;&gt;Mobile Banking&lt;/font&gt;" style="rounded=0;whiteSpace=wrap;html=1;fillColor=#CCFFFF;" parent="1" vertex="1">
          <mxGeometry x="380" y="30" width="90" height="30" as="geometry" />
        </mxCell>
        <mxCell id="O49eScv-SLvOPECcGDNr-87" value="External APIs" style="rounded=0;whiteSpace=wrap;html=1;fillColor=#CCE5FF;" parent="1" vertex="1">
          <mxGeometry x="-10" y="119" width="910" height="21" as="geometry" />
        </mxCell>
        <mxCell id="O49eScv-SLvOPECcGDNr-88" value="Internal APIs" style="rounded=0;whiteSpace=wrap;html=1;fillColor=#E6E6E6;" parent="1" vertex="1">
          <mxGeometry x="120" y="233" width="620" height="21" as="geometry" />
        </mxCell>
        <mxCell id="O49eScv-SLvOPECcGDNr-91" value="" style="group" parent="1" vertex="1" connectable="0">
          <mxGeometry x="-10" y="160" width="120" height="330" as="geometry" />
        </mxCell>
        <mxCell id="O49eScv-SLvOPECcGDNr-89" value="Developers" style="rounded=0;whiteSpace=wrap;html=1;fillColor=#E6E6E6;" parent="O49eScv-SLvOPECcGDNr-91" vertex="1">
          <mxGeometry width="108" height="30" as="geometry" />
        </mxCell>
        <mxCell id="O49eScv-SLvOPECcGDNr-90" value="" style="rounded=0;whiteSpace=wrap;html=1;" parent="O49eScv-SLvOPECcGDNr-91" vertex="1">
          <mxGeometry y="30" width="108" height="300" as="geometry" />
        </mxCell>
        <mxCell id="O49eScv-SLvOPECcGDNr-101" value="API library" style="rounded=0;whiteSpace=wrap;html=1;strokeColor=none;" parent="O49eScv-SLvOPECcGDNr-91" vertex="1">
          <mxGeometry x="14" y="85.54455445544555" width="80" height="60.1980198019802" as="geometry" />
        </mxCell>
        <mxCell id="O49eScv-SLvOPECcGDNr-102" value="Documentation" style="rounded=0;whiteSpace=wrap;html=1;dashed=1;dashPattern=8 8;strokeColor=none;" parent="O49eScv-SLvOPECcGDNr-91" vertex="1">
          <mxGeometry x="9" y="163.16831683168317" width="90" height="60.1980198019802" as="geometry" />
        </mxCell>
        <mxCell id="O49eScv-SLvOPECcGDNr-95" value="API Gateway" style="rounded=0;whiteSpace=wrap;html=1;fillColor=#FFCCCC;" parent="1" vertex="1">
          <mxGeometry x="-10" y="80" width="910" height="21" as="geometry" />
        </mxCell>
        <mxCell id="O49eScv-SLvOPECcGDNr-96" value="" style="shape=doubleArrow;direction=south;whiteSpace=wrap;html=1;" parent="1" vertex="1">
          <mxGeometry x="233" y="102" width="13" height="16" as="geometry" />
        </mxCell>
        <mxCell id="O49eScv-SLvOPECcGDNr-97" value="" style="shape=doubleArrow;direction=south;whiteSpace=wrap;html=1;" parent="1" vertex="1">
          <mxGeometry x="635" y="102" width="13" height="16" as="geometry" />
        </mxCell>
        <mxCell id="O49eScv-SLvOPECcGDNr-104" value="" style="group" parent="1" vertex="1" connectable="0">
          <mxGeometry x="790" y="160" width="120" height="330" as="geometry" />
        </mxCell>
        <mxCell id="O49eScv-SLvOPECcGDNr-105" value="External Partners" style="rounded=0;whiteSpace=wrap;html=1;fillColor=#E6E6E6;" parent="O49eScv-SLvOPECcGDNr-104" vertex="1">
          <mxGeometry width="108" height="30" as="geometry" />
        </mxCell>
        <mxCell id="O49eScv-SLvOPECcGDNr-106" value="" style="rounded=0;whiteSpace=wrap;html=1;" parent="O49eScv-SLvOPECcGDNr-104" vertex="1">
          <mxGeometry y="30" width="108" height="300" as="geometry" />
        </mxCell>
        <mxCell id="O49eScv-SLvOPECcGDNr-107" value="KYC Vendor" style="rounded=0;whiteSpace=wrap;html=1;strokeColor=none;" parent="O49eScv-SLvOPECcGDNr-104" vertex="1">
          <mxGeometry x="14" y="88.2178217821782" width="80" height="62.07920792079207" as="geometry" />
        </mxCell>
        <mxCell id="O49eScv-SLvOPECcGDNr-109" value="" style="rounded=0;whiteSpace=wrap;html=1;strokeColor=#000099;strokeWidth=1;" parent="1" vertex="1">
          <mxGeometry x="120" y="270" width="620" height="160" as="geometry" />
        </mxCell>
        <mxCell id="O49eScv-SLvOPECcGDNr-110" value="Microservices Based Core&amp;nbsp;" style="text;html=1;strokeColor=none;fillColor=default;align=center;verticalAlign=middle;whiteSpace=wrap;rounded=0;fontStyle=1" parent="1" vertex="1">
          <mxGeometry x="341" y="256" width="172" height="30" as="geometry" />
        </mxCell>
        <mxCell id="O49eScv-SLvOPECcGDNr-111" value="Deposit Services" style="rounded=0;whiteSpace=wrap;html=1;fillColor=#E6E6E6;strokeColor=none;" parent="1" vertex="1">
          <mxGeometry x="130" y="280" width="290" height="20" as="geometry" />
        </mxCell>
        <mxCell id="O49eScv-SLvOPECcGDNr-112" value="Loan services" style="rounded=0;whiteSpace=wrap;html=1;fillColor=#E6E6E6;strokeColor=none;" parent="1" vertex="1">
          <mxGeometry x="440" y="280" width="290" height="20" as="geometry" />
        </mxCell>
        <mxCell id="O49eScv-SLvOPECcGDNr-113" value="Balance Services" style="rounded=0;whiteSpace=wrap;html=1;fontSize=11;fillColor=#CCE5FF;strokeColor=none;" parent="1" vertex="1">
          <mxGeometry x="132" y="306" width="48" height="40" as="geometry" />
        </mxCell>
        <mxCell id="O49eScv-SLvOPECcGDNr-114" value="Transaction Services" style="rounded=0;whiteSpace=wrap;html=1;fontSize=11;fillColor=#CCE5FF;strokeColor=none;" parent="1" vertex="1">
          <mxGeometry x="190" y="306" width="60" height="40" as="geometry" />
        </mxCell>
        <mxCell id="O49eScv-SLvOPECcGDNr-117" style="edgeStyle=orthogonalEdgeStyle;rounded=0;orthogonalLoop=1;jettySize=auto;html=1;entryX=0;entryY=0.5;entryDx=0;entryDy=0;endArrow=none;endFill=0;dashed=1;dashPattern=1 2;jumpSize=5;strokeWidth=2;" parent="1" edge="1">
          <mxGeometry relative="1" as="geometry">
            <mxPoint x="321.0000000000002" y="326" as="sourcePoint" />
            <mxPoint x="349" y="326" as="targetPoint" />
          </mxGeometry>
        </mxCell>
        <mxCell id="O49eScv-SLvOPECcGDNr-115" value="Statement Services" style="rounded=0;whiteSpace=wrap;html=1;fontSize=11;fillColor=#CCE5FF;strokeColor=none;" parent="1" vertex="1">
          <mxGeometry x="258" y="306" width="62" height="40" as="geometry" />
        </mxCell>
        <mxCell id="O49eScv-SLvOPECcGDNr-116" value="Interest Rate Services" style="rounded=0;whiteSpace=wrap;html=1;fontSize=11;fillColor=#CCE5FF;strokeColor=none;" parent="1" vertex="1">
          <mxGeometry x="348" y="306" width="70" height="40" as="geometry" />
        </mxCell>
        <mxCell id="O49eScv-SLvOPECcGDNr-123" value="Underwriting Services" style="rounded=0;whiteSpace=wrap;html=1;fontSize=11;fillColor=#CCE5FF;strokeColor=none;" parent="1" vertex="1">
          <mxGeometry x="450" y="306" width="91" height="40" as="geometry" />
        </mxCell>
        <mxCell id="O49eScv-SLvOPECcGDNr-127" style="edgeStyle=orthogonalEdgeStyle;rounded=0;orthogonalLoop=1;jettySize=auto;html=1;entryX=0;entryY=0.5;entryDx=0;entryDy=0;endArrow=none;endFill=0;dashed=1;dashPattern=1 2;strokeWidth=2;" parent="1" source="O49eScv-SLvOPECcGDNr-125" target="O49eScv-SLvOPECcGDNr-126" edge="1">
          <mxGeometry relative="1" as="geometry" />
        </mxCell>
        <mxCell id="O49eScv-SLvOPECcGDNr-125" value="Statement Services" style="rounded=0;whiteSpace=wrap;html=1;fontSize=11;fillColor=#CCE5FF;strokeColor=none;" parent="1" vertex="1">
          <mxGeometry x="554" y="306" width="62" height="40" as="geometry" />
        </mxCell>
        <mxCell id="O49eScv-SLvOPECcGDNr-126" value="Interest Rate Services" style="rounded=0;whiteSpace=wrap;html=1;fontSize=11;fillColor=#CCE5FF;strokeColor=none;" parent="1" vertex="1">
          <mxGeometry x="660" y="306" width="70" height="40" as="geometry" />
        </mxCell>
        <mxCell id="O49eScv-SLvOPECcGDNr-128" value="" style="rounded=0;whiteSpace=wrap;html=1;fillColor=#E6FFCC;strokeColor=none;" parent="1" vertex="1">
          <mxGeometry x="132" y="362" width="598" height="58" as="geometry" />
        </mxCell>
        <mxCell id="O49eScv-SLvOPECcGDNr-129" value="Common services" style="text;html=1;align=center;verticalAlign=middle;resizable=0;points=[];autosize=1;strokeColor=none;fillColor=none;fontStyle=1" parent="1" vertex="1">
          <mxGeometry x="360.5" y="358" width="130" height="30" as="geometry" />
        </mxCell>
        <mxCell id="O49eScv-SLvOPECcGDNr-130" value="Account Services" style="rounded=0;whiteSpace=wrap;html=1;fontSize=11;fillColor=#BAF8FF;strokeColor=none;" parent="1" vertex="1">
          <mxGeometry x="141" y="387.5" width="89" height="23" as="geometry" />
        </mxCell>
        <mxCell id="O49eScv-SLvOPECcGDNr-132" value="Customer Services" style="rounded=0;whiteSpace=wrap;html=1;fontSize=11;fillColor=#BAF8FF;strokeColor=none;" parent="1" vertex="1">
          <mxGeometry x="240" y="387.5" width="100" height="23" as="geometry" />
        </mxCell>
        <mxCell id="O49eScv-SLvOPECcGDNr-136" style="edgeStyle=orthogonalEdgeStyle;rounded=0;orthogonalLoop=1;jettySize=auto;html=1;entryX=0;entryY=0.5;entryDx=0;entryDy=0;dashed=1;endArrow=none;endFill=0;" parent="1" source="O49eScv-SLvOPECcGDNr-133" target="O49eScv-SLvOPECcGDNr-134" edge="1">
          <mxGeometry relative="1" as="geometry" />
        </mxCell>
        <mxCell id="O49eScv-SLvOPECcGDNr-133" value="Transaction Services" style="rounded=0;whiteSpace=wrap;html=1;fontSize=11;fillColor=#BAF8FF;strokeColor=none;" parent="1" vertex="1">
          <mxGeometry x="350" y="387.5" width="110" height="23" as="geometry" />
        </mxCell>
        <mxCell id="O49eScv-SLvOPECcGDNr-134" value="Reporting Services" style="rounded=0;whiteSpace=wrap;html=1;fontSize=11;fillColor=#BAF8FF;strokeColor=none;" parent="1" vertex="1">
          <mxGeometry x="610" y="387.5" width="110" height="23" as="geometry" />
        </mxCell>
        <mxCell id="O49eScv-SLvOPECcGDNr-137" value="Data Store" style="rounded=0;whiteSpace=wrap;html=1;fillColor=#dae8fc;strokeColor=#6c8ebf;" parent="1" vertex="1">
          <mxGeometry x="110" y="460" width="671" height="28.62" as="geometry" />
        </mxCell>
        <mxCell id="O49eScv-SLvOPECcGDNr-80" value="" style="rounded=0;whiteSpace=wrap;html=1;strokeColor=#4C0099;" parent="1" vertex="1">
          <mxGeometry x="120" y="173" width="620" height="50" as="geometry" />
        </mxCell>
        <mxCell id="O49eScv-SLvOPECcGDNr-81" value="Service Mesh" style="text;align=center;verticalAlign=middle;resizable=0;points=[];autosize=1;labelBackgroundColor=default;labelBorderColor=none;html=1;spacing=-1;fillColor=default;fontStyle=1" parent="1" vertex="1">
          <mxGeometry x="385" y="162" width="90" height="20" as="geometry" />
        </mxCell>
        <mxCell id="O49eScv-SLvOPECcGDNr-82" value="&lt;font style=&quot;font-size: 10px;&quot;&gt;Service Orchestration&lt;/font&gt;" style="rounded=0;whiteSpace=wrap;html=1;fillColor=#e1d5e7;strokeColor=#9673a6;" parent="1" vertex="1">
          <mxGeometry x="170" y="187" width="120" height="20" as="geometry" />
        </mxCell>
        <mxCell id="O49eScv-SLvOPECcGDNr-83" value="&lt;font style=&quot;font-size: 10px;&quot;&gt;Key Management&lt;/font&gt;" style="rounded=0;whiteSpace=wrap;html=1;fillColor=#e1d5e7;strokeColor=#9673a6;" parent="1" vertex="1">
          <mxGeometry x="590" y="187" width="120" height="20" as="geometry" />
        </mxCell>
        <mxCell id="O49eScv-SLvOPECcGDNr-84" value="&lt;font style=&quot;font-size: 10px;&quot;&gt;Log/auditing&lt;/font&gt;" style="rounded=0;whiteSpace=wrap;html=1;fillColor=#e1d5e7;strokeColor=#9673a6;" parent="1" vertex="1">
          <mxGeometry x="365" y="187" width="120" height="20" as="geometry" />
        </mxCell>
        <mxCell id="ZKt9Rxk8hRKq1MYmmVNN-2" value="Enterprise Messaging System" style="rounded=0;whiteSpace=wrap;html=1;fillColor=#E6E6E6;flipH=1;flipV=1;direction=north;verticalAlign=middle;horizontal=0;rotation=-180;" parent="1" vertex="1">
          <mxGeometry x="750" y="173" width="20" height="257" as="geometry" />
        </mxCell>
        <mxCell id="ZKt9Rxk8hRKq1MYmmVNN-3" value="" style="shape=doubleArrow;direction=south;whiteSpace=wrap;html=1;" parent="1" vertex="1">
          <mxGeometry x="635" y="141" width="15.44" height="19" as="geometry" />
        </mxCell>
        <mxCell id="ZKt9Rxk8hRKq1MYmmVNN-4" value="" style="shape=doubleArrow;direction=south;whiteSpace=wrap;html=1;" parent="1" vertex="1">
          <mxGeometry x="233" y="140" width="13" height="20" as="geometry" />
        </mxCell>
      </root>
    </mxGraphModel>
  </diagram>
</mxfile>
